
{
    "width": 18, 
    "height": 16,
    "entities": [
      {
        "x": 0,
        "y": 0,
        "type": "wall"
      },
      {
        "x": 1,
        "y": 0,
        "type": "wall"
      },
      {
        "x": 2,
        "y": 0,
        "type": "wall"
      },
      {
        "x": 3,
        "y": 0,
        "type": "wall"
      },
      {
        "x": 4,
        "y": 0,
        "type": "wall"
      },
      {
        "x": 5,
        "y": 0,
        "type": "wall"
      },
      {
        "x": 6,
        "y": 0,
        "type": "wall"
      },
      {
        "x": 7,
        "y": 0,
        "type": "wall"
      },
      {
        "x": 8,
        "y": 0,
        "type": "wall"
      },
      {
        "x": 9,
        "y": 0,
        "type": "wall"
      },
      {
        "x": 10,
        "y": 0,
        "type": "wall"
      },
      {
        "x": 11,
        "y": 0,
        "type": "wall"
      },
      {
        "x": 12,
        "y": 0,
        "type": "wall"
      },
      {
        "x": 13,
        "y": 0,
        "type": "wall"
      },
      {
        "x": 14,
        "y": 0,
        "type": "wall"
      },
      {
        "x": 15,
        "y": 0,
        "type": "wall"
      },
      {
        "x": 16,
        "y": 0,
        "type": "wall"
      },
      {
        "x": 17,
        "y": 0,
        "type": "wall"
      },
      {
        "x": 0,
        "y": 1,
        "type": "wall"
      },
      {
        "x": 1,
        "y": 1,
        "type": "player"
      },
      {
        "x": 2,
        "y": 1,
        "type": "anduril"
      },
      {
        "x": 17,
        "y": 1,
        "type": "wall"
      },
      {
        "x": 0,
        "y": 2,
        "type": "wall"
      },
      {
        "x": 3,
        "y": 2,
        "type": "wall"
      },
      {
        "x": 6,
        "y": 2,
        "type": "wall"
      },
      {
        "x": 7,
        "y": 2,
        "type": "wall"
      },
      {
        "x": 8,
        "y": 2,
        "type": "wall"
      },
      {
        "x": 9,
        "y": 2,
        "type": "wall"
      },
      {
        "x": 12,
        "y": 2,
        "type": "wall"
      },
      {
        "x": 13,
        "y": 2,
        "type": "wall"
      },
      {
        "x": 14,
        "y": 2,
        "type": "wall"
      },
      {
        "x": 15,
        "y": 2,
        "type": "wall"
      },
      {
        "x": 17,
        "y": 2,
        "type": "wall"
      },
      {
        "x": 0,
        "y": 3,
        "type": "wall"
      },
      {
        "x": 3,
        "y": 3,
        "type": "wall"
      },
      {
        "x": 4,
        "y": 3,
        "type": "wall"
      },
      {
        "x": 15,
        "y": 3,
        "type": "wall"
      },
      {
        "x": 17,
        "y": 3,
        "type": "wall"
      },
      {
        "x": 0,
        "y": 4,
        "type": "wall"
      },
      {
        "x": 8,
        "y": 4,
        "type": "wall"
      },
      {
        "x": 13,
        "y": 4,
        "type": "bomb"
      },
      {
        "x": 17,
        "y": 4,
        "type": "wall"
      },
      {
        "x": 0,
        "y": 5,
        "type": "wall"
      },
      {
        "x": 3,
        "y": 5,
        "type": "mercenary"
      },
      {
        "x": 8,
        "y": 5,
        "type": "wall"
      },
      {
        "x": 17,
        "y": 5,
        "type": "wall"
      },
      {
        "x": 0,
        "y": 6,
        "type": "wall"
      },
      {
        "x": 6,
        "y": 6,
        "type": "wall"
      },
      {
        "x": 8,
        "y": 6,
        "type": "wall"
      },
      {
        "x": 9,
        "y": 6,
        "type": "wall"
      },
      {
        "x": 13,
        "y": 6,
        "type": "wall"
      },
      {
        "x": 17,
        "y": 6,
        "type": "wall"
      },
      {
        "x": 0,
        "y": 7,
        "type": "wall"
      },
      {
        "x": 6,
        "y": 7,
        "type": "wall"
      },
      {
        "x": 12,
        "y": 7,
        "type": "wall"
      },
      {
        "x": 13,
        "y": 7,
        "type": "wall"
      },
      {
        "x": 17,
        "y": 7,
        "type": "wall"
      },
      {
        "x": 0,
        "y": 8,
        "type": "wall"
      },
      {
        "x": 3,
        "y": 8,
        "type": "wall"
      },
      {
        "x": 4,
        "y": 8,
        "type": "wall"
      },
      {
        "x": 5,
        "y": 8,
        "type": "wall"
      },
      {
        "x": 6,
        "y": 8,
        "type": "wall"
      },
      {
        "x": 8,
        "y": 8,
        "type": "wall"
      },
      {
        "x": 9,
        "y": 8,
        "type": "wall"
      },
      {
        "x": 10,
        "y": 8,
        "type": "wall"
      },
      {
        "x": 13,
        "y": 8,
        "type": "wall"
      },
      {
        "x": 17,
        "y": 8,
        "type": "wall"
      },
      {
        "x": 0,
        "y": 9,
        "type": "wall"
      },
      {
        "x": 9,
        "y": 9,
        "type": "wall"
      },
      {
        "x": 13,
        "y": 9,
        "type": "wall"
      },
      {
        "x": 14,
        "y": 9,
        "type": "wall"
      },
      {
        "x": 17,
        "y": 9,
        "type": "wall"
      },
      {
        "x": 0,
        "y": 10,
        "type": "wall"
      },
      {
        "x": 3,
        "y": 10,
        "type": "wall"
      },
      {
        "x": 5,
        "y": 10,
        "type": "wall"
      },
      {
        "x": 6,
        "y": 10,
        "type": "wall"
      },
      {
        "x": 7,
        "y": 10,
        "type": "treasure"
      },
      {
        "x": 11,
        "y": 10,
        "type": "mercenary"
      },
      {
        "x": 17,
        "y": 10,
        "type": "wall"
      },
      {
        "x": 0,
        "y": 11,
        "type": "wall"
      },
      {
        "x": 3,
        "y": 11,
        "type": "wall"
      },
      {
        "x": 6,
        "y": 11,
        "type": "wall"
      },
      {
        "x": 8,
        "y": 11,
        "type": "wall"
      },
      {
        "x": 9,
        "y": 11,
        "type": "wall"
      },
      {
        "x": 10,
        "y": 11,
        "type": "wall"
      },
      {
        "x": 12,
        "y": 11,
        "type": "wall"
      },
      {
        "x": 17,
        "y": 11,
        "type": "wall"
      },
      {
        "x": 0,
        "y": 12,
        "type": "wall"
      },
      {
        "x": 3,
        "y": 12,
        "type": "wall"
      },
      {
        "x": 9,
        "y": 12,
        "type": "wall"
      },
      {
        "x": 12,
        "y": 12,
        "type": "wall"
      },
      {
        "x": 17,
        "y": 12,
        "type": "wall"
      },
      {
        "x": 0,
        "y": 13,
        "type": "wall"
      },
      {
        "x": 3,
        "y": 13,
        "type": "wall"
      },
      {
        "x": 4,
        "y": 13,
        "type": "wall"
      },
      {
        "x": 5,
        "y": 13,
        "type": "wall"
      },
      {
        "x": 12,
        "y": 13,
        "type": "wall"
      },
      {
        "x": 13,
        "y": 13,
        "type": "wall"
      },
      {
        "x": 14,
        "y": 13,
        "type": "wall"
      },
      {
        "x": 17,
        "y": 13,
        "type": "wall"
      },
      {
        "x": 0,
        "y": 14,
        "type": "wall"
      },
      {
        "x": 17,
        "y": 14,
        "type": "wall"
      },
      {
        "x": 0,
        "y": 15,
        "type": "wall"
      },
      {
        "x": 1,
        "y": 15,
        "type": "wall"
      },
      {
        "x": 2,
        "y": 15,
        "type": "wall"
      },
      {
        "x": 3,
        "y": 15,
        "type": "wall"
      },
      {
        "x": 4,
        "y": 15,
        "type": "wall"
      },
      {
        "x": 5,
        "y": 15,
        "type": "wall"
      },
      {
        "x": 6,
        "y": 15,
        "type": "wall"
      },
      {
        "x": 7,
        "y": 15,
        "type": "wall"
      },
      {
        "x": 8,
        "y": 15,
        "type": "wall"
      },
      {
        "x": 9,
        "y": 15,
        "type": "wall"
      },
      {
        "x": 10,
        "y": 15,
        "type": "wall"
      },
      {
        "x": 11,
        "y": 15,
        "type": "wall"
      },
      {
        "x": 12,
        "y": 15,
        "type": "wall"
      },
      {
        "x": 13,
        "y": 15,
        "type": "wall"
      },
      {
        "x": 14,
        "y": 15,
        "type": "wall"
      },
      {
        "x": 15,
        "y": 15,
        "type": "wall"
      },
      {
        "x": 16,
        "y": 15,
        "type": "wall"
      },
      {
        "x": 17,
        "y": 15,
        "type": "wall"
      }
    ],
    "goal-condition": {
      "goal": "AND",
      "subgoals": [
        {
          "goal": "enemies"
        },
        {
          "goal": "treasure"
        }
      ]
    }
  }