{
    "entities": [
      {
        "x": 0,
        "y": 0,
        "type": "player"
      },
      {
        "x": 1,
        "y": 0,
        "type": "treasure"
      },
      {
        "x": 2,
        "y": 0,
        "type": "one_ring"
      },
      {
        "x": 6,
        "y": 0,
        "type": "assassin"
      }
    ]
}