{
    "entities": [
        {
            "x": 1,
            "y": 0,
            "type": "player"
        },
        {
            "x": 1,
            "y": 1,
            "type": "boulder"
        },
        {
            "x": 0,
            "y": 2,
            "type": "wire"
        },
        {
            "x": 1,
            "y": 2,
            "type": "switch"
        },
        {
            "x": 2,
            "y": 2,
            "type": "wire"
        },
        {
            "x": 0,
            "y": 3,
            "type": "wire"
        },
        {
            "x": 2,
            "y": 3,
            "type": "wire"
        },
        {
            "x": 0,
            "y": 4,
            "type": "wire"
        },
        {
            "x": 2,
            "y": 4,
            "type": "wire"
        },
        {
            "x": 1,
            "y": 4,
            "type": "light_bulb_off",
            "logic" : "CO_AND"
        }
    ]
}