{
    "entities": [
        {
            "x": 0,
            "y": 0,
            "type": "player"
        },
        {
            "x": 0,
            "y": 1,
            "type": "boulder"
        },
        {
            "x": 0,
            "y": 2,
            "type": "switch"
        },
        {
            "x": 1,
            "y": 2,
            "type": "light_bulb_off",
            "logic": "OR"
        },
        {
            "x": 2,
            "y": 1,
            "type": "boulder"
        },
        {
            "x": 2,
            "y": 2,
            "type": "switch"
        }
    ]
}