{
    "width": 8, 
    "height": 8,
    "entities": [
        {
            "x": -4,
            "y": 0,
            "type": "player"
        },
        {
            "x": 0,
            "y": -1,
            "type": "swamp_tile",
            "movement_factor": 4
        },
        {
            "x": 0,
            "y": 0,
            "type": "spider"
        },
        {
            "x": 6,
            "y": 1,
            "type": "exit"
        }
    ],
        "goal-condition": {
            "goal": "exit"
        }
}