{
    "width": 6, 
    "height": 6,
    "entities": [
        {
            "x": 0,
            "y": 0,
            "type": "wall"
        },
        {
            "x": 1,
            "y": 0,
            "type": "wall"
        },
        {
            "x": 2,
            "y": 0,
            "type": "wall"
        },
        {
            "x": 3,
            "y": 0,
            "type": "wall"
        },
        {
            "x": 4,
            "y": 0,
            "type": "wall"
        },
        {
            "x": 5,
            "y": 0,
            "type": "wall"
        },
        {
            "x": 0,
            "y": 1,
            "type": "wall"
        },
        {
            "x": 1,
            "y": 1,
            "type": "player"
        },
        {
            "x": 5,
            "y": 1,
            "type": "wall"
        },
        {
            "x": 0,
            "y": 2,
            "type": "wall"
        },
        {
            "x": 1,
            "y": 2,
            "type": "sword"
        },
        {
            "x": 5,
            "y": 2,
            "type": "wall"
        },
        {
            "x": 0,
            "y": 3,
            "type": "wall"
        },
        {
            "x": 1,
            "y": 3,
            "type": "treasure"
        },
        {
            "x": 5,
            "y": 3,
            "type": "wall"
        },
        {
            "x": 0,
            "y": 4,
            "type": "wall"
        },
        {
            "x": 1,
            "y": 4,
            "type": "exit"
        },
        {
            "x": 4,
            "y": 4,
            "type": "mercenary"
        },
        {
            "x": 5,
            "y": 4,
            "type": "wall"
        },
        {
            "x": 0,
            "y": 5,
            "type": "wall"
        },
        {
            "x": 1,
            "y": 5,
            "type": "wall"
        },
        {
            "x": 2,
            "y": 5,
            "type": "wall"
        },
        {
            "x": 3,
            "y": 5,
            "type": "wall"
        },
        {
            "x": 4,
            "y": 5,
            "type": "wall"
        },
        {
            "x": 5,
            "y": 5,
            "type": "wall"
        }
    ],
    "goal-condition": {
        "goal": "AND",
        "subgoals": [
          {
            "goal": "treasure"
          },
          {
            "goal": "OR",
            "subgoals": [
              {
                "goal": "enemies"
              },
              {
                "goal": "exit"
              }
            ]
          }
        ]
    }
}