{
    "width": 8,
    "height": 8,
    "entities": [
        {
            "x": 4,
            "y": 1,
            "type": "player"
        },
        {
            "x": 0,
            "y": 0,
            "type": "zombie_toast"
        },
        {
            "x": 1,
            "y": 0,
            "type": "door",
            "key": "1"
        },
        {
            "x": -1,
            "y": 0,
            "type": "wall"
        },
        {
            "x": 1,
            "y": -1,
            "type": "wall"
        },
        {
            "x": 1,
            "y": 1,
            "type": "wall"
        },
        {
            "x": -1,
            "y": 1,
            "type": "wall"
        },
        {
            "x": 0,
            "y": 1,
            "type": "wall"
        },
        {
            "x": -1,
            "y": 0,
            "type": "wall"
        },
        {
            "x": 0,
            "y": -1,
            "type": "wall"
        },
        {
            "x": 6,
            "y": 1,
            "type": "exit"
        }
    ],
    "goal-condition": {
        "goal": "exit"
    }
}